[
  {
    "face" : "/resources/net.bonvio.os/images/60.jpeg",
    "what": "Brunch this weekend?",
    "who": "Min Li Chan",
    "when": "3:08PM",
    "notes": " I'll be in your neighborhood doing errands"
  },
  {
    "face" : "/resources/net.bonvio.os/images/60.jpeg",
    "what": "Brunch this weekend?",
    "who": "Min Li Chan",
    "when": "3:08PM",
    "notes": " I'll be in your neighborhood doing errands"
  },
  {
    "face" : "/resources/net.bonvio.os/images/60.jpeg",
    "what": "Brunch this weekend?",
    "who": "Min Li Chan",
    "when": "3:08PM",
    "notes": " I'll be in your neighborhood doing errands"
  },
  {
    "face" : "/resources/net.bonvio.os/images/60.jpeg",
    "what": "Brunch this weekend?",
    "who": "Min Li Chan",
    "when": "3:08PM",
    "notes": " I'll be in your neighborhood doing errands"
  }
]